F:\RS 9.6.2.1\RSMultifront\Projects\Znode.Engine.Admin\Scripts\ClientResource\Resource.de.js
F:\RS 9.6.2.1\RSMultifront\Projects\Znode.Engine.Admin\Scripts\ClientResource\Resource.de.js.map
F:\RS 9.6.2.1\RSMultifront\Projects\Znode.Engine.Admin\Scripts\ClientResource\Resource.en.js
F:\RS 9.6.2.1\RSMultifront\Projects\Znode.Engine.Admin\Scripts\ClientResource\Resource.en.js.map
F:\RS 9.6.2.1\RSMultifront\Projects\Znode.Engine.Admin\Scripts\ClientResource\Resource.fr.js
F:\RS 9.6.2.1\RSMultifront\Projects\Znode.Engine.Admin\Scripts\ClientResource\Resource.fr.js.map
F:\RS 9.6.2.1\RSMultifront\Projects\Znode.Engine.Admin\Scripts\Core\Common\ZnodeGlobal.js
F:\RS 9.6.2.1\RSMultifront\Projects\Znode.Engine.Admin\Scripts\Core\Common\ZnodeGlobal.js.map
F:\RS 9.6.2.1\RSMultifront\Projects\Znode.Engine.Admin\Scripts\Core\Common\ZnodeHelper.js
F:\RS 9.6.2.1\RSMultifront\Projects\Znode.Engine.Admin\Scripts\Core\Common\ZnodeHelper.js.map
F:\RS 9.6.2.1\RSMultifront\Projects\Znode.Engine.Admin\Scripts\Core\Controls\DateTimeRangePicker\ZnodeDateRangePicker.js
F:\RS 9.6.2.1\RSMultifront\Projects\Znode.Engine.Admin\Scripts\Core\Controls\DateTimeRangePicker\ZnodeDateRangePicker.js.map
F:\RS 9.6.2.1\RSMultifront\Projects\Znode.Engine.Admin\Scripts\Core\Controls\SaveCancelButton.js
F:\RS 9.6.2.1\RSMultifront\Projects\Znode.Engine.Admin\Scripts\Core\Controls\SaveCancelButton.js.map
F:\RS 9.6.2.1\RSMultifront\Projects\Znode.Engine.Admin\Scripts\Core\Controls\TextBoxEditorFor.js
F:\RS 9.6.2.1\RSMultifront\Projects\Znode.Engine.Admin\Scripts\Core\Controls\TextBoxEditorFor.js.map
F:\RS 9.6.2.1\RSMultifront\Projects\Znode.Engine.Admin\Scripts\Core\Controls\TreeView.js
F:\RS 9.6.2.1\RSMultifront\Projects\Znode.Engine.Admin\Scripts\Core\Controls\TreeView.js.map
F:\RS 9.6.2.1\RSMultifront\Projects\Znode.Engine.Admin\Scripts\Core\Controls\WebGrid\CustomJurl.js
F:\RS 9.6.2.1\RSMultifront\Projects\Znode.Engine.Admin\Scripts\Core\Controls\WebGrid\CustomJurl.js.map
F:\RS 9.6.2.1\RSMultifront\Projects\Znode.Engine.Admin\Scripts\Core\Controls\WebGrid\DynamicGrid.js
F:\RS 9.6.2.1\RSMultifront\Projects\Znode.Engine.Admin\Scripts\Core\Controls\WebGrid\DynamicGrid.js.map
F:\RS 9.6.2.1\RSMultifront\Projects\Znode.Engine.Admin\Scripts\Core\Controls\WebGrid\GridPager.js
F:\RS 9.6.2.1\RSMultifront\Projects\Znode.Engine.Admin\Scripts\Core\Controls\WebGrid\GridPager.js.map
F:\RS 9.6.2.1\RSMultifront\Projects\Znode.Engine.Admin\Scripts\Core\Controls\ZnodeCollapsibleGrid.js
F:\RS 9.6.2.1\RSMultifront\Projects\Znode.Engine.Admin\Scripts\Core\Controls\ZnodeCollapsibleGrid.js.map
F:\RS 9.6.2.1\RSMultifront\Projects\Znode.Engine.Admin\Scripts\Core\Controls\ZnodeMultiSelect.js
F:\RS 9.6.2.1\RSMultifront\Projects\Znode.Engine.Admin\Scripts\Core\Controls\ZnodeMultiSelect.js.map
F:\RS 9.6.2.1\RSMultifront\Projects\Znode.Engine.Admin\Scripts\Core\Controls\ZnodeProgressNotifier.js
F:\RS 9.6.2.1\RSMultifront\Projects\Znode.Engine.Admin\Scripts\Core\Controls\ZnodeProgressNotifier.js.map
F:\RS 9.6.2.1\RSMultifront\Projects\Znode.Engine.Admin\Scripts\Core\Endpoint\CustomEndpoint.js
F:\RS 9.6.2.1\RSMultifront\Projects\Znode.Engine.Admin\Scripts\Core\Endpoint\CustomEndpoint.js.map
F:\RS 9.6.2.1\RSMultifront\Projects\Znode.Engine.Admin\Scripts\Core\Endpoint\ZnodeEndpoint.js
F:\RS 9.6.2.1\RSMultifront\Projects\Znode.Engine.Admin\Scripts\Core\Endpoint\ZnodeEndpoint.js.map
F:\RS 9.6.2.1\RSMultifront\Projects\Znode.Engine.Admin\Scripts\Core\Model\Znode.Model.js
F:\RS 9.6.2.1\RSMultifront\Projects\Znode.Engine.Admin\Scripts\Core\Model\Znode.Model.js.map
F:\RS 9.6.2.1\RSMultifront\Projects\Znode.Engine.Admin\Scripts\Core\Znode\Account.js
F:\RS 9.6.2.1\RSMultifront\Projects\Znode.Engine.Admin\Scripts\Core\Znode\Account.js.map
F:\RS 9.6.2.1\RSMultifront\Projects\Znode.Engine.Admin\Scripts\Core\Znode\AddonGroup.js
F:\RS 9.6.2.1\RSMultifront\Projects\Znode.Engine.Admin\Scripts\Core\Znode\AddonGroup.js.map
F:\RS 9.6.2.1\RSMultifront\Projects\Znode.Engine.Admin\Scripts\Core\Znode\AttributeFamily.js
F:\RS 9.6.2.1\RSMultifront\Projects\Znode.Engine.Admin\Scripts\Core\Znode\AttributeFamily.js.map
F:\RS 9.6.2.1\RSMultifront\Projects\Znode.Engine.Admin\Scripts\Core\Znode\AttributeGroup.js
F:\RS 9.6.2.1\RSMultifront\Projects\Znode.Engine.Admin\Scripts\Core\Znode\AttributeGroup.js.map
F:\RS 9.6.2.1\RSMultifront\Projects\Znode.Engine.Admin\Scripts\Core\Znode\Attributes.js
F:\RS 9.6.2.1\RSMultifront\Projects\Znode.Engine.Admin\Scripts\Core\Znode\Attributes.js.map
F:\RS 9.6.2.1\RSMultifront\Projects\Znode.Engine.Admin\Scripts\Core\Znode\BlogNews.js
F:\RS 9.6.2.1\RSMultifront\Projects\Znode.Engine.Admin\Scripts\Core\Znode\BlogNews.js.map
F:\RS 9.6.2.1\RSMultifront\Projects\Znode.Engine.Admin\Scripts\Core\Znode\Brand.js
F:\RS 9.6.2.1\RSMultifront\Projects\Znode.Engine.Admin\Scripts\Core\Znode\Brand.js.map
F:\RS 9.6.2.1\RSMultifront\Projects\Znode.Engine.Admin\Scripts\Core\Znode\Catalog.js
F:\RS 9.6.2.1\RSMultifront\Projects\Znode.Engine.Admin\Scripts\Core\Znode\Catalog.js.map
F:\RS 9.6.2.1\RSMultifront\Projects\Znode.Engine.Admin\Scripts\Core\Znode\Category.js
F:\RS 9.6.2.1\RSMultifront\Projects\Znode.Engine.Admin\Scripts\Core\Znode\Category.js.map
F:\RS 9.6.2.1\RSMultifront\Projects\Znode.Engine.Admin\Scripts\Core\Znode\CategoryAttribute.js
F:\RS 9.6.2.1\RSMultifront\Projects\Znode.Engine.Admin\Scripts\Core\Znode\CategoryAttribute.js.map
F:\RS 9.6.2.1\RSMultifront\Projects\Znode.Engine.Admin\Scripts\Core\Znode\Config.js
F:\RS 9.6.2.1\RSMultifront\Projects\Znode.Engine.Admin\Scripts\Core\Znode\Config.js.map
F:\RS 9.6.2.1\RSMultifront\Projects\Znode.Engine.Admin\Scripts\Core\Znode\Content.js
F:\RS 9.6.2.1\RSMultifront\Projects\Znode.Engine.Admin\Scripts\Core\Znode\Content.js.map
F:\RS 9.6.2.1\RSMultifront\Projects\Znode.Engine.Admin\Scripts\Core\Znode\ContentWidget.js
F:\RS 9.6.2.1\RSMultifront\Projects\Znode.Engine.Admin\Scripts\Core\Znode\ContentWidget.js.map
F:\RS 9.6.2.1\RSMultifront\Projects\Znode.Engine.Admin\Scripts\Core\Znode\Customer.js
F:\RS 9.6.2.1\RSMultifront\Projects\Znode.Engine.Admin\Scripts\Core\Znode\Customer.js.map
F:\RS 9.6.2.1\RSMultifront\Projects\Znode.Engine.Admin\Scripts\Core\Znode\Dashboard.js
F:\RS 9.6.2.1\RSMultifront\Projects\Znode.Engine.Admin\Scripts\Core\Znode\Dashboard.js.map
F:\RS 9.6.2.1\RSMultifront\Projects\Znode.Engine.Admin\Scripts\Core\Znode\DevExpressReportViewer.js
F:\RS 9.6.2.1\RSMultifront\Projects\Znode.Engine.Admin\Scripts\Core\Znode\DevExpressReportViewer.js.map
F:\RS 9.6.2.1\RSMultifront\Projects\Znode.Engine.Admin\Scripts\Core\Znode\Diagnostics.js
F:\RS 9.6.2.1\RSMultifront\Projects\Znode.Engine.Admin\Scripts\Core\Znode\Diagnostics.js.map
F:\RS 9.6.2.1\RSMultifront\Projects\Znode.Engine.Admin\Scripts\Core\Znode\EmailTemplate.js
F:\RS 9.6.2.1\RSMultifront\Projects\Znode.Engine.Admin\Scripts\Core\Znode\EmailTemplate.js.map
F:\RS 9.6.2.1\RSMultifront\Projects\Znode.Engine.Admin\Scripts\Core\Znode\ERPConfigurator.js
F:\RS 9.6.2.1\RSMultifront\Projects\Znode.Engine.Admin\Scripts\Core\Znode\ERPConfigurator.js.map
F:\RS 9.6.2.1\RSMultifront\Projects\Znode.Engine.Admin\Scripts\Core\Znode\FormBuilder.js
F:\RS 9.6.2.1\RSMultifront\Projects\Znode.Engine.Admin\Scripts\Core\Znode\FormBuilder.js.map
F:\RS 9.6.2.1\RSMultifront\Projects\Znode.Engine.Admin\Scripts\Core\Znode\GeneralSetting.js
F:\RS 9.6.2.1\RSMultifront\Projects\Znode.Engine.Admin\Scripts\Core\Znode\GeneralSetting.js.map
F:\RS 9.6.2.1\RSMultifront\Projects\Znode.Engine.Admin\Scripts\Core\Znode\GiftCard.js
F:\RS 9.6.2.1\RSMultifront\Projects\Znode.Engine.Admin\Scripts\Core\Znode\GiftCard.js.map
F:\RS 9.6.2.1\RSMultifront\Projects\Znode.Engine.Admin\Scripts\Core\Znode\GlobalAttribute.js
F:\RS 9.6.2.1\RSMultifront\Projects\Znode.Engine.Admin\Scripts\Core\Znode\GlobalAttribute.js.map
F:\RS 9.6.2.1\RSMultifront\Projects\Znode.Engine.Admin\Scripts\Core\Znode\GlobalAttributeEntity.js
F:\RS 9.6.2.1\RSMultifront\Projects\Znode.Engine.Admin\Scripts\Core\Znode\GlobalAttributeEntity.js.map
F:\RS 9.6.2.1\RSMultifront\Projects\Znode.Engine.Admin\Scripts\Core\Znode\GlobalAttributeFamily.js
F:\RS 9.6.2.1\RSMultifront\Projects\Znode.Engine.Admin\Scripts\Core\Znode\GlobalAttributeFamily.js.map
F:\RS 9.6.2.1\RSMultifront\Projects\Znode.Engine.Admin\Scripts\Core\Znode\GlobalAttributeGroup.js
F:\RS 9.6.2.1\RSMultifront\Projects\Znode.Engine.Admin\Scripts\Core\Znode\GlobalAttributeGroup.js.map
F:\RS 9.6.2.1\RSMultifront\Projects\Znode.Engine.Admin\Scripts\Core\Znode\GlobalConfiguration.js
F:\RS 9.6.2.1\RSMultifront\Projects\Znode.Engine.Admin\Scripts\Core\Znode\GlobalConfiguration.js.map
F:\RS 9.6.2.1\RSMultifront\Projects\Znode.Engine.Admin\Scripts\Core\Znode\Highlight.js
F:\RS 9.6.2.1\RSMultifront\Projects\Znode.Engine.Admin\Scripts\Core\Znode\Highlight.js.map
F:\RS 9.6.2.1\RSMultifront\Projects\Znode.Engine.Admin\Scripts\Core\Znode\Import.js
F:\RS 9.6.2.1\RSMultifront\Projects\Znode.Engine.Admin\Scripts\Core\Znode\Import.js.map
F:\RS 9.6.2.1\RSMultifront\Projects\Znode.Engine.Admin\Scripts\Core\Znode\Inventory.js
F:\RS 9.6.2.1\RSMultifront\Projects\Znode.Engine.Admin\Scripts\Core\Znode\Inventory.js.map
F:\RS 9.6.2.1\RSMultifront\Projects\Znode.Engine.Admin\Scripts\Core\Znode\Login.js
F:\RS 9.6.2.1\RSMultifront\Projects\Znode.Engine.Admin\Scripts\Core\Znode\Login.js.map
F:\RS 9.6.2.1\RSMultifront\Projects\Znode.Engine.Admin\Scripts\Core\Znode\LogMessage.js
F:\RS 9.6.2.1\RSMultifront\Projects\Znode.Engine.Admin\Scripts\Core\Znode\LogMessage.js.map
F:\RS 9.6.2.1\RSMultifront\Projects\Znode.Engine.Admin\Scripts\Core\Znode\Media.js
F:\RS 9.6.2.1\RSMultifront\Projects\Znode.Engine.Admin\Scripts\Core\Znode\Media.js.map
F:\RS 9.6.2.1\RSMultifront\Projects\Znode.Engine.Admin\Scripts\Core\Znode\MediaConfiguration.js
F:\RS 9.6.2.1\RSMultifront\Projects\Znode.Engine.Admin\Scripts\Core\Znode\MediaConfiguration.js.map
F:\RS 9.6.2.1\RSMultifront\Projects\Znode.Engine.Admin\Scripts\Core\Znode\MediaManagerTools.js
F:\RS 9.6.2.1\RSMultifront\Projects\Znode.Engine.Admin\Scripts\Core\Znode\MediaManagerTools.js.map
F:\RS 9.6.2.1\RSMultifront\Projects\Znode.Engine.Admin\Scripts\Core\Znode\MyReports.js
F:\RS 9.6.2.1\RSMultifront\Projects\Znode.Engine.Admin\Scripts\Core\Znode\MyReports.js.map
F:\RS 9.6.2.1\RSMultifront\Projects\Znode.Engine.Admin\Scripts\Core\Znode\Order.js
F:\RS 9.6.2.1\RSMultifront\Projects\Znode.Engine.Admin\Scripts\Core\Znode\Order.js.map
F:\RS 9.6.2.1\RSMultifront\Projects\Znode.Engine.Admin\Scripts\Core\Znode\OrderSidePanel.js
F:\RS 9.6.2.1\RSMultifront\Projects\Znode.Engine.Admin\Scripts\Core\Znode\OrderSidePanel.js.map
F:\RS 9.6.2.1\RSMultifront\Projects\Znode.Engine.Admin\Scripts\Core\Znode\OrderTabs.js
F:\RS 9.6.2.1\RSMultifront\Projects\Znode.Engine.Admin\Scripts\Core\Znode\OrderTabs.js.map
F:\RS 9.6.2.1\RSMultifront\Projects\Znode.Engine.Admin\Scripts\Core\Znode\Payment.js
F:\RS 9.6.2.1\RSMultifront\Projects\Znode.Engine.Admin\Scripts\Core\Znode\Payment.js.map
F:\RS 9.6.2.1\RSMultifront\Projects\Znode.Engine.Admin\Scripts\Core\Znode\PIMAttributeFamily.js
F:\RS 9.6.2.1\RSMultifront\Projects\Znode.Engine.Admin\Scripts\Core\Znode\PIMAttributeFamily.js.map
F:\RS 9.6.2.1\RSMultifront\Projects\Znode.Engine.Admin\Scripts\Core\Znode\PIMAttributeGroup.js
F:\RS 9.6.2.1\RSMultifront\Projects\Znode.Engine.Admin\Scripts\Core\Znode\PIMAttributeGroup.js.map
F:\RS 9.6.2.1\RSMultifront\Projects\Znode.Engine.Admin\Scripts\Core\Znode\PostalCodeRegExp.js
F:\RS 9.6.2.1\RSMultifront\Projects\Znode.Engine.Admin\Scripts\Core\Znode\PostalCodeRegExp.js.map
F:\RS 9.6.2.1\RSMultifront\Projects\Znode.Engine.Admin\Scripts\Core\Znode\Price.js
F:\RS 9.6.2.1\RSMultifront\Projects\Znode.Engine.Admin\Scripts\Core\Znode\Price.js.map
F:\RS 9.6.2.1\RSMultifront\Projects\Znode.Engine.Admin\Scripts\Core\Znode\ProductAttribute.js
F:\RS 9.6.2.1\RSMultifront\Projects\Znode.Engine.Admin\Scripts\Core\Znode\ProductAttribute.js.map
F:\RS 9.6.2.1\RSMultifront\Projects\Znode.Engine.Admin\Scripts\Core\Znode\ProductFeed.js
F:\RS 9.6.2.1\RSMultifront\Projects\Znode.Engine.Admin\Scripts\Core\Znode\ProductFeed.js.map
F:\RS 9.6.2.1\RSMultifront\Projects\Znode.Engine.Admin\Scripts\Core\Znode\Products.js
F:\RS 9.6.2.1\RSMultifront\Projects\Znode.Engine.Admin\Scripts\Core\Znode\Products.js.map
F:\RS 9.6.2.1\RSMultifront\Projects\Znode.Engine.Admin\Scripts\Core\Znode\Profiles.js
F:\RS 9.6.2.1\RSMultifront\Projects\Znode.Engine.Admin\Scripts\Core\Znode\Profiles.js.map
F:\RS 9.6.2.1\RSMultifront\Projects\Znode.Engine.Admin\Scripts\Core\Znode\Promotion.js
F:\RS 9.6.2.1\RSMultifront\Projects\Znode.Engine.Admin\Scripts\Core\Znode\Promotion.js.map
F:\RS 9.6.2.1\RSMultifront\Projects\Znode.Engine.Admin\Scripts\Core\Znode\ProviderEngine.js
F:\RS 9.6.2.1\RSMultifront\Projects\Znode.Engine.Admin\Scripts\Core\Znode\ProviderEngine.js.map
F:\RS 9.6.2.1\RSMultifront\Projects\Znode.Engine.Admin\Scripts\Core\Znode\QuickOrder.js
F:\RS 9.6.2.1\RSMultifront\Projects\Znode.Engine.Admin\Scripts\Core\Znode\QuickOrder.js.map
F:\RS 9.6.2.1\RSMultifront\Projects\Znode.Engine.Admin\Scripts\Core\Znode\Quote.js
F:\RS 9.6.2.1\RSMultifront\Projects\Znode.Engine.Admin\Scripts\Core\Znode\Quote.js.map
F:\RS 9.6.2.1\RSMultifront\Projects\Znode.Engine.Admin\Scripts\Core\Znode\Recommendation.js
F:\RS 9.6.2.1\RSMultifront\Projects\Znode.Engine.Admin\Scripts\Core\Znode\Recommendation.js.map
F:\RS 9.6.2.1\RSMultifront\Projects\Znode.Engine.Admin\Scripts\Core\Znode\Review.js
F:\RS 9.6.2.1\RSMultifront\Projects\Znode.Engine.Admin\Scripts\Core\Znode\Review.js.map
F:\RS 9.6.2.1\RSMultifront\Projects\Znode.Engine.Admin\Scripts\Core\Znode\RMAConfiguration.js
F:\RS 9.6.2.1\RSMultifront\Projects\Znode.Engine.Admin\Scripts\Core\Znode\RMAConfiguration.js.map
F:\RS 9.6.2.1\RSMultifront\Projects\Znode.Engine.Admin\Scripts\Core\Znode\RMAManager.js
F:\RS 9.6.2.1\RSMultifront\Projects\Znode.Engine.Admin\Scripts\Core\Znode\RMAManager.js.map
F:\RS 9.6.2.1\RSMultifront\Projects\Znode.Engine.Admin\Scripts\Core\Znode\RMAReturn.js
F:\RS 9.6.2.1\RSMultifront\Projects\Znode.Engine.Admin\Scripts\Core\Znode\RMAReturn.js.map
F:\RS 9.6.2.1\RSMultifront\Projects\Znode.Engine.Admin\Scripts\Core\Znode\RoleAndAccessRight.js
F:\RS 9.6.2.1\RSMultifront\Projects\Znode.Engine.Admin\Scripts\Core\Znode\RoleAndAccessRight.js.map
F:\RS 9.6.2.1\RSMultifront\Projects\Znode.Engine.Admin\Scripts\Core\Znode\SalesRep.js
F:\RS 9.6.2.1\RSMultifront\Projects\Znode.Engine.Admin\Scripts\Core\Znode\SalesRep.js.map
F:\RS 9.6.2.1\RSMultifront\Projects\Znode.Engine.Admin\Scripts\Core\Znode\Search.js
F:\RS 9.6.2.1\RSMultifront\Projects\Znode.Engine.Admin\Scripts\Core\Znode\Search.js.map
F:\RS 9.6.2.1\RSMultifront\Projects\Znode.Engine.Admin\Scripts\Core\Znode\SearchConfiguration.js
F:\RS 9.6.2.1\RSMultifront\Projects\Znode.Engine.Admin\Scripts\Core\Znode\SearchConfiguration.js.map
F:\RS 9.6.2.1\RSMultifront\Projects\Znode.Engine.Admin\Scripts\Core\Znode\SearchReport.js
F:\RS 9.6.2.1\RSMultifront\Projects\Znode.Engine.Admin\Scripts\Core\Znode\SearchReport.js.map
F:\RS 9.6.2.1\RSMultifront\Projects\Znode.Engine.Admin\Scripts\Core\Znode\SEOSetting.js
F:\RS 9.6.2.1\RSMultifront\Projects\Znode.Engine.Admin\Scripts\Core\Znode\SEOSetting.js.map
F:\RS 9.6.2.1\RSMultifront\Projects\Znode.Engine.Admin\Scripts\Core\Znode\SessionTimeoutAlert.js
F:\RS 9.6.2.1\RSMultifront\Projects\Znode.Engine.Admin\Scripts\Core\Znode\SessionTimeoutAlert.js.map
F:\RS 9.6.2.1\RSMultifront\Projects\Znode.Engine.Admin\Scripts\Core\Znode\Shippings.js
F:\RS 9.6.2.1\RSMultifront\Projects\Znode.Engine.Admin\Scripts\Core\Znode\Shippings.js.map
F:\RS 9.6.2.1\RSMultifront\Projects\Znode.Engine.Admin\Scripts\Core\Znode\Store.js
F:\RS 9.6.2.1\RSMultifront\Projects\Znode.Engine.Admin\Scripts\Core\Znode\Store.js.map
F:\RS 9.6.2.1\RSMultifront\Projects\Znode.Engine.Admin\Scripts\Core\Znode\StoreExperience.js
F:\RS 9.6.2.1\RSMultifront\Projects\Znode.Engine.Admin\Scripts\Core\Znode\StoreExperience.js.map
F:\RS 9.6.2.1\RSMultifront\Projects\Znode.Engine.Admin\Scripts\Core\Znode\StoreLocator.js
F:\RS 9.6.2.1\RSMultifront\Projects\Znode.Engine.Admin\Scripts\Core\Znode\StoreLocator.js.map
F:\RS 9.6.2.1\RSMultifront\Projects\Znode.Engine.Admin\Scripts\Core\Znode\TaxClass.js
F:\RS 9.6.2.1\RSMultifront\Projects\Znode.Engine.Admin\Scripts\Core\Znode\TaxClass.js.map
F:\RS 9.6.2.1\RSMultifront\Projects\Znode.Engine.Admin\Scripts\Core\Znode\Template.js
F:\RS 9.6.2.1\RSMultifront\Projects\Znode.Engine.Admin\Scripts\Core\Znode\Template.js.map
F:\RS 9.6.2.1\RSMultifront\Projects\Znode.Engine.Admin\Scripts\Core\Znode\Theme.js
F:\RS 9.6.2.1\RSMultifront\Projects\Znode.Engine.Admin\Scripts\Core\Znode\Theme.js.map
F:\RS 9.6.2.1\RSMultifront\Projects\Znode.Engine.Admin\Scripts\Core\Znode\TouchPointConfiguration.js
F:\RS 9.6.2.1\RSMultifront\Projects\Znode.Engine.Admin\Scripts\Core\Znode\TouchPointConfiguration.js.map
F:\RS 9.6.2.1\RSMultifront\Projects\Znode.Engine.Admin\Scripts\Core\Znode\UrlManagement.js
F:\RS 9.6.2.1\RSMultifront\Projects\Znode.Engine.Admin\Scripts\Core\Znode\UrlManagement.js.map
F:\RS 9.6.2.1\RSMultifront\Projects\Znode.Engine.Admin\Scripts\Core\Znode\User.js
F:\RS 9.6.2.1\RSMultifront\Projects\Znode.Engine.Admin\Scripts\Core\Znode\User.js.map
F:\RS 9.6.2.1\RSMultifront\Projects\Znode.Engine.Admin\Scripts\Core\Znode\Vendor.js
F:\RS 9.6.2.1\RSMultifront\Projects\Znode.Engine.Admin\Scripts\Core\Znode\Vendor.js.map
F:\RS 9.6.2.1\RSMultifront\Projects\Znode.Engine.Admin\Scripts\Core\Znode\Warehouse.js
F:\RS 9.6.2.1\RSMultifront\Projects\Znode.Engine.Admin\Scripts\Core\Znode\Warehouse.js.map
F:\RS 9.6.2.1\RSMultifront\Projects\Znode.Engine.Admin\Scripts\Core\Znode\WebSite.js
F:\RS 9.6.2.1\RSMultifront\Projects\Znode.Engine.Admin\Scripts\Core\Znode\WebSite.js.map
F:\RS 9.6.2.1\RSMultifront\Projects\Znode.Engine.Admin\Scripts\Core\Znode\WidgetTemplate.js
F:\RS 9.6.2.1\RSMultifront\Projects\Znode.Engine.Admin\Scripts\Core\Znode\WidgetTemplate.js.map
F:\RS 9.6.2.1\RSMultifront\Projects\Znode.Engine.Admin\Scripts\Core\Znode\ZnodeNotification.js
F:\RS 9.6.2.1\RSMultifront\Projects\Znode.Engine.Admin\Scripts\Core\Znode\ZnodeNotification.js.map
F:\RS 9.6.2.1\RSMultifront\Projects\Znode.Engine.Admin\Scripts\Custom\CustomPortal.js
F:\RS 9.6.2.1\RSMultifront\Projects\Znode.Engine.Admin\Scripts\Custom\CustomPortal.js.map
